{
  "establishments": [
    {
      "FHRSID": 982849,
      "LocalAuthorityBusinessID": "EHDC12463",
      "BusinessName": "1 & 30 DONALD DEWAR COURT",
      "BusinessType": "Caring Premises",
      "BusinessTypeID": 5,
      "AddressLine1": "",
      "AddressLine2": "1 & 30 Donald Dewar Court",
      "AddressLine3": "Provost Fraser Drive",
      "AddressLine4": "Aberdeen",
      "PostCode": "AB16 5JB",
      "Phone": "",
      "RatingValue": "Pass",
      "RatingKey": "fhis_pass_en-gb",
      "RatingDate": "2017-05-15T00:00:00",
      "LocalAuthorityCode": "760",
      "LocalAuthorityName": "Aberdeen City",
      "LocalAuthorityWebSite": "http://www.aberdeencity.gov.uk",
      "LocalAuthorityEmailAddress": "commercial@aberdeencity.gov.uk",
      "scores": {
        "Hygiene": null,
        "Structural": null,
        "ConfidenceInManagement": null
      },
      "SchemeType": "FHIS",
      "geocode": {
        "longitude": "-2.16749501228333",
        "latitude": "57.1613082885742"
      },
      "RightToReply": "",
      "Distance": null,
      "NewRatingPending": false,
      "meta": {
        "dataSource": null,
        "extractDate": "0001-01-01T00:00:00",
        "itemCount": 0,
        "returncode": null,
        "totalCount": 0,
        "totalPages": 0,
        "pageSize": 0,
        "pageNumber": 0
      },
      "links": []
    },
    {
      "FHRSID": 906411,
      "LocalAuthorityBusinessID": "EHDC11985",
      "BusinessName": "14FORTY @ STATOIL",
      "BusinessType": "Restaurant/Cafe/Canteen",
      "BusinessTypeID": 1,
      "AddressLine1": "",
      "AddressLine2": "Prime Four Business Park",
      "AddressLine3": "Kingswells",
      "AddressLine4": "Aberdeen",
      "PostCode": "AB15 8PJ",
      "Phone": "",
      "RatingValue": "Pass",
      "RatingKey": "fhis_pass_en-gb",
      "RatingDate": "2017-12-18T00:00:00",
      "LocalAuthorityCode": "760",
      "LocalAuthorityName": "Aberdeen City",
      "LocalAuthorityWebSite": "http://www.aberdeencity.gov.uk",
      "LocalAuthorityEmailAddress": "commercial@aberdeencity.gov.uk",
      "scores": {
        "Hygiene": null,
        "Structural": null,
        "ConfidenceInManagement": null
      },
      "SchemeType": "FHIS",
      "geocode": {
        "longitude": "-2.229412",
        "latitude": "57.148309"
      },
      "RightToReply": "",
      "Distance": null,
      "NewRatingPending": false,
      "meta": {
        "dataSource": null,
        "extractDate": "0001-01-01T00:00:00",
        "itemCount": 0,
        "returncode": null,
        "totalCount": 0,
        "totalPages": 0,
        "pageSize": 0,
        "pageNumber": 0
      },
      "links": []
    },
    {
      "FHRSID": 592387,
      "LocalAuthorityBusinessID": "EHDC10723",
      "BusinessName": "1906 RESTAURANT AT HMT",
      "BusinessType": "Restaurant/Cafe/Canteen",
      "BusinessTypeID": 1,
      "AddressLine1": "",
      "AddressLine2": "Rosemount Viaduct",
      "AddressLine3": "Aberdeen",
      "AddressLine4": "",
      "PostCode": "AB25 1GL",
      "Phone": "",
      "RatingValue": "Pass",
      "RatingKey": "fhis_pass_en-gb",
      "RatingDate": "2017-04-25T00:00:00",
      "LocalAuthorityCode": "760",
      "LocalAuthorityName": "Aberdeen City",
      "LocalAuthorityWebSite": "http://www.aberdeencity.gov.uk",
      "LocalAuthorityEmailAddress": "commercial@aberdeencity.gov.uk",
      "scores": {
        "Hygiene": null,
        "Structural": null,
        "ConfidenceInManagement": null
      },
      "SchemeType": "FHIS",
      "geocode": {
        "longitude": "-2.104965",
        "latitude": "57.148161"
      },
      "RightToReply": "",
      "Distance": null,
      "NewRatingPending": false,
      "meta": {
        "dataSource": null,
        "extractDate": "0001-01-01T00:00:00",
        "itemCount": 0,
        "returncode": null,
        "totalCount": 0,
        "totalPages": 0,
        "pageSize": 0,
        "pageNumber": 0
      },
      "links": []
    },
    {
      "FHRSID": 1017312,
      "LocalAuthorityBusinessID": "EHDC12570",
      "BusinessName": "2 BROTHERS PIZZA",
      "BusinessType": "Takeaway/sandwich shop",
      "BusinessTypeID": 7844,
      "AddressLine1": "",
      "AddressLine2": "703 Great Northern Road",
      "AddressLine3": "Aberdeen",
      "AddressLine4": "",
      "PostCode": "AB24 2DU",
      "Phone": "",
      "RatingValue": "Pass",
      "RatingKey": "fhis_pass_en-gb",
      "RatingDate": "2017-11-29T00:00:00",
      "LocalAuthorityCode": "760",
      "LocalAuthorityName": "Aberdeen City",
      "LocalAuthorityWebSite": "http://www.aberdeencity.gov.uk",
      "LocalAuthorityEmailAddress": "commercial@aberdeencity.gov.uk",
      "scores": {
        "Hygiene": null,
        "Structural": null,
        "ConfidenceInManagement": null
      },
      "SchemeType": "FHIS",
      "geocode": {
        "longitude": "-2.13817501068115",
        "latitude": "57.1723823547363"
      },
      "RightToReply": "",
      "Distance": null,
      "NewRatingPending": false,
      "meta": {
        "dataSource": null,
        "extractDate": "0001-01-01T00:00:00",
        "itemCount": 0,
        "returncode": null,
        "totalCount": 0,
        "totalPages": 0,
        "pageSize": 0,
        "pageNumber": 0
      },
      "links": []
    },
    {
      "FHRSID": 593681,
      "LocalAuthorityBusinessID": "EHDC9793",
      "BusinessName": "210 BISTRO",
      "BusinessType": "Restaurant/Cafe/Canteen",
      "BusinessTypeID": 1,
      "AddressLine1": "",
      "AddressLine2": "210 Market Street",
      "AddressLine3": "Aberdeen",
      "AddressLine4": "",
      "PostCode": "AB11 5PQ",
      "Phone": "",
      "RatingValue": "Pass",
      "RatingKey": "fhis_pass_en-gb",
      "RatingDate": "2015-10-12T00:00:00",
      "LocalAuthorityCode": "760",
      "LocalAuthorityName": "Aberdeen City",
      "LocalAuthorityWebSite": "http://www.aberdeencity.gov.uk",
      "LocalAuthorityEmailAddress": "commercial@aberdeencity.gov.uk",
      "scores": {
        "Hygiene": null,
        "Structural": null,
        "ConfidenceInManagement": null
      },
      "SchemeType": "FHIS",
      "geocode": {
        "longitude": "-2.092258",
        "latitude": "57.142278"
      },
      "RightToReply": "",
      "Distance": null,
      "NewRatingPending": false,
      "meta": {
        "dataSource": null,
        "extractDate": "0001-01-01T00:00:00",
        "itemCount": 0,
        "returncode": null,
        "totalCount": 0,
        "totalPages": 0,
        "pageSize": 0,
        "pageNumber": 0
      },
      "links": []
    },
    {
      "FHRSID": 997643,
      "LocalAuthorityBusinessID": "EHDC12441",
      "BusinessName": "210 CABOOSE",
      "BusinessType": "Restaurant/Cafe/Canteen",
      "BusinessTypeID": 1,
      "AddressLine1": "Provender House",
      "AddressLine2": "37 Waterloo Quay",
      "AddressLine3": "Aberdeen",
      "AddressLine4": "",
      "PostCode": "AB11 5BS",
      "Phone": "",
      "RatingValue": "Pass",
      "RatingKey": "fhis_pass_en-gb",
      "RatingDate": "2017-11-06T00:00:00",
      "LocalAuthorityCode": "760",
      "LocalAuthorityName": "Aberdeen City",
      "LocalAuthorityWebSite": "http://www.aberdeencity.gov.uk",
      "LocalAuthorityEmailAddress": "commercial@aberdeencity.gov.uk",
      "scores": {
        "Hygiene": null,
        "Structural": null,
        "ConfidenceInManagement": null
      },
      "SchemeType": "FHIS",
      "geocode": {
        "longitude": "-2.08436703681946",
        "latitude": "57.145866394043"
      },
      "RightToReply": "",
      "Distance": null,
      "NewRatingPending": false,
      "meta": {
        "dataSource": null,
        "extractDate": "0001-01-01T00:00:00",
        "itemCount": 0,
        "returncode": null,
        "totalCount": 0,
        "totalPages": 0,
        "pageSize": 0,
        "pageNumber": 0
      },
      "links": []
    },
    {
      "FHRSID": 593037,
      "LocalAuthorityBusinessID": "EHDC4774",
      "BusinessName": "22 CLUB",
      "BusinessType": "Pub/bar/nightclub",
      "BusinessTypeID": 7843,
      "AddressLine1": "",
      "AddressLine2": "55 Rose Street",
      "AddressLine3": "Aberdeen",
      "AddressLine4": "",
      "PostCode": "AB10 1UB",
      "Phone": "",
      "RatingValue": "Pass",
      "RatingKey": "fhis_pass_en-gb",
      "RatingDate": "2014-03-11T00:00:00",
      "LocalAuthorityCode": "760",
      "LocalAuthorityName": "Aberdeen City",
      "LocalAuthorityWebSite": "http://www.aberdeencity.gov.uk",
      "LocalAuthorityEmailAddress": "commercial@aberdeencity.gov.uk",
      "scores": {
        "Hygiene": null,
        "Structural": null,
        "ConfidenceInManagement": null
      },
      "SchemeType": "FHIS",
      "geocode": {
        "longitude": "-2.111912",
        "latitude": "57.144562"
      },
      "RightToReply": "",
      "Distance": null,
      "NewRatingPending": false,
      "meta": {
        "dataSource": null,
        "extractDate": "0001-01-01T00:00:00",
        "itemCount": 0,
        "returncode": null,
        "totalCount": 0,
        "totalPages": 0,
        "pageSize": 0,
        "pageNumber": 0
      },
      "links": []
    },
    {
      "FHRSID": 768041,
      "LocalAuthorityBusinessID": "EHDC11731",
      "BusinessName": "3 STAR FISH BAR",
      "BusinessType": "Takeaway/sandwich shop",
      "BusinessTypeID": 7844,
      "AddressLine1": "",
      "AddressLine2": "Unit 3",
      "AddressLine3": "Lewis Road",
      "AddressLine4": "Sheddocksley",
      "PostCode": "AB16 6TG",
      "Phone": "",
      "RatingValue": "Pass",
      "RatingKey": "fhis_pass_en-gb",
      "RatingDate": "2017-06-26T00:00:00",
      "LocalAuthorityCode": "760",
      "LocalAuthorityName": "Aberdeen City",
      "LocalAuthorityWebSite": "http://www.aberdeencity.gov.uk",
      "LocalAuthorityEmailAddress": "commercial@aberdeencity.gov.uk",
      "scores": {
        "Hygiene": null,
        "Structural": null,
        "ConfidenceInManagement": null
      },
      "SchemeType": "FHIS",
      "geocode": {
        "longitude": "-2.17609",
        "latitude": "57.153956"
      },
      "RightToReply": "",
      "Distance": null,
      "NewRatingPending": false,
      "meta": {
        "dataSource": null,
        "extractDate": "0001-01-01T00:00:00",
        "itemCount": 0,
        "returncode": null,
        "totalCount": 0,
        "totalPages": 0,
        "pageSize": 0,
        "pageNumber": 0
      },
      "links": []
    },
    {
      "FHRSID": 593410,
      "LocalAuthorityBusinessID": "EHDC8497",
      "BusinessName": "3rd HOUSE GUESTHOUSE",
      "BusinessType": "Hotel/bed & breakfast/guest house",
      "BusinessTypeID": 7842,
      "AddressLine1": "",
      "AddressLine2": "406 Great Western Road",
      "AddressLine3": "Aberdeen",
      "AddressLine4": "",
      "PostCode": "AB10 6NR",
      "Phone": "",
      "RatingValue": "Pass",
      "RatingKey": "fhis_pass_en-gb",
      "RatingDate": "2012-08-02T00:00:00",
      "LocalAuthorityCode": "760",
      "LocalAuthorityName": "Aberdeen City",
      "LocalAuthorityWebSite": "http://www.aberdeencity.gov.uk",
      "LocalAuthorityEmailAddress": "commercial@aberdeencity.gov.uk",
      "scores": {
        "Hygiene": null,
        "Structural": null,
        "ConfidenceInManagement": null
      },
      "SchemeType": "FHIS",
      "geocode": {
        "longitude": "-2.130746",
        "latitude": "57.133935"
      },
      "RightToReply": "",
      "Distance": null,
      "NewRatingPending": false,
      "meta": {
        "dataSource": null,
        "extractDate": "0001-01-01T00:00:00",
        "itemCount": 0,
        "returncode": null,
        "totalCount": 0,
        "totalPages": 0,
        "pageSize": 0,
        "pageNumber": 0
      },
      "links": []
    },
    {
      "FHRSID": 593690,
      "LocalAuthorityBusinessID": "EHDC9812",
      "BusinessName": "52 REGENT QUAY APARTMENTS",
      "BusinessType": "Hotel/bed & breakfast/guest house",
      "BusinessTypeID": 7842,
      "AddressLine1": "",
      "AddressLine2": "52 Regent Quay",
      "AddressLine3": "Aberdeen",
      "AddressLine4": "",
      "PostCode": "AB11 5AQ",
      "Phone": "",
      "RatingValue": "Pass",
      "RatingKey": "fhis_pass_en-gb",
      "RatingDate": "2009-11-20T00:00:00",
      "LocalAuthorityCode": "760",
      "LocalAuthorityName": "Aberdeen City",
      "LocalAuthorityWebSite": "http://www.aberdeencity.gov.uk",
      "LocalAuthorityEmailAddress": "commercial@aberdeencity.gov.uk",
      "scores": {
        "Hygiene": null,
        "Structural": null,
        "ConfidenceInManagement": null
      },
      "SchemeType": "FHIS",
      "geocode": {
        "longitude": "-2.089624",
        "latitude": "57.146637"
      },
      "RightToReply": "",
      "Distance": null,
      "NewRatingPending": false,
      "meta": {
        "dataSource": null,
        "extractDate": "0001-01-01T00:00:00",
        "itemCount": 0,
        "returncode": null,
        "totalCount": 0,
        "totalPages": 0,
        "pageSize": 0,
        "pageNumber": 0
      },
      "links": []
    }
  ],
  "meta": {
    "dataSource": "Lucene",
    "extractDate": "0001-01-01T00:00:00",
    "itemCount": 0,
    "returncode": "OK",
    "totalCount": 1835,
    "totalPages": 184,
    "pageSize": 10,
    "pageNumber": 1
  },
  "links": []
}